  314634311  
  851505223  
  1388376135  
  1925247047  
  2462117959  
  2998988871  
  3535859783  
  4072730695  
  262205511  
  314624071  
  314634375  
  314634327  
  314634313  
  314634312  
  57774875  
  536871392  
  1074777937  
  4281504130  
  61511  
  523825223  
  71  
  523763783  
  524275271  
  64720903  
  64720935  
  64720919  
  601591911  
  601591959  
  601591975  
  601592007  
  601592023  
  601592039  
  2212204823  
  2212204839  
  2212148039  
  2212204903  
  2749075863  
  2749075879  
  2749075911  
  2749075927  
  2749075943  
  2749075457  
  3285946370  
  3285946371  
  3285946372  
  3285946373  
  3285946374  
  3285946376  
  3822817289  
  3822817290  
  3822817291  
  3822817280  
